^C:\USERS\HOME\SOURCE\REPOS\КС5СЕРВЕР\КС5СЕРВЕР\SOURCE.CPP
C:\USERS\HOME\SOURCE\REPOS\КС5Сервер\КС5Сервер\DEBUG\VC141.PDB
C:\USERS\HOME\SOURCE\REPOS\КС5Сервер\КС5Сервер\DEBUG\VC141.IDB
C:\USERS\HOME\SOURCE\REPOS\КС5Сервер\КС5Сервер\DEBUG\SOURCE.OBJ
